%YAML 1.1
%TAG !u! tag:unity3d.com,2011:
--- !u!74 &7400000
AnimationClip:
  m_ObjectHideFlags: 0
  m_CorrespondingSourceObject: {fileID: 0}
  m_PrefabInternal: {fileID: 0}
  m_Name: Attack
  serializedVersion: 6
  m_Legacy: 0
  m_Compressed: 0
  m_UseHighQualityCurve: 1
  m_RotationCurves: []
  m_CompressedRotationCurves: []
  m_EulerCurves: []
  m_PositionCurves: []
  m_ScaleCurves: []
  m_FloatCurves: []
  m_PPtrCurves:
  - curve:
    - time: 0
      value: {fileID: 21300014, guid: 9d69ae98725365b4b94189120dc1b40a, type: 3}
    - time: 0.125
      value: {fileID: 21300016, guid: 9d69ae98725365b4b94189120dc1b40a, type: 3}
    - time: 0.25
      value: {fileID: 21300018, guid: 9d69ae98725365b4b94189120dc1b40a, type: 3}
    - time: 0.375
      value: {fileID: 21300020, guid: 9d69ae98725365b4b94189120dc1b40a, type: 3}
    - time: 0.625
      value: {fileID: 21300022, guid: 9d69ae98725365b4b94189120dc1b40a, type: 3}
    - time: 0.75
      value: {fileID: 21300024, guid: 9d69ae98725365b4b94189120dc1b40a, type: 3}
    - time: 0.875
      value: {fileID: 21300026, guid: 9d69ae98725365b4b94189120dc1b40a, type: 3}
    - time: 1
      value: {fileID: 21300028, guid: 9d69ae98725365b4b94189120dc1b40a, type: 3}
    - time: 1.125
      value: {fileID: 21300016, guid: 9d69ae98725365b4b94189120dc1b40a, type: 3}
    attribute: m_Sprite
    path: 
    classID: 114
    script: {fileID: -765806418, guid: f5f67c52d1564df4a8936ccd202a3bd8, type: 3}
  - curve:
    - time: 0
      value: {fileID: 21300014, guid: 9d69ae98725365b4b94189120dc1b40a, type: 3}
    - time: 0.125
      value: {fileID: 21300016, guid: 9d69ae98725365b4b94189120dc1b40a, type: 3}
    - time: 0.25
      value: {fileID: 21300018, guid: 9d69ae98725365b4b94189120dc1b40a, type: 3}
    - time: 0.375
      value: {fileID: 21300020, guid: 9d69ae98725365b4b94189120dc1b40a, type: 3}
    - time: 0.625
      value: {fileID: 21300022, guid: 9d69ae98725365b4b94189120dc1b40a, type: 3}
    - time: 0.75
      value: {fileID: 21300024, guid: 9d69ae98725365b4b94189120dc1b40a, type: 3}
    - time: 0.875
      value: {fileID: 21300026, guid: 9d69ae98725365b4b94189120dc1b40a, type: 3}
    - time: 1
      value: {fileID: 21300028, guid: 9d69ae98725365b4b94189120dc1b40a, type: 3}
    - time: 1.125
      value: {fileID: 21300016, guid: 9d69ae98725365b4b94189120dc1b40a, type: 3}
    attribute: m_Sprite
    path: 
    classID: 212
    script: {fileID: 0}
  m_SampleRate: 8
  m_WrapMode: 0
  m_Bounds:
    m_Center: {x: 0, y: 0, z: 0}
    m_Extent: {x: 0, y: 0, z: 0}
  m_ClipBindingConstant:
    genericBindings:
    - serializedVersion: 2
      path: 0
      attribute: 2015549526
      script: {fileID: -765806418, guid: f5f67c52d1564df4a8936ccd202a3bd8, type: 3}
      typeID: 114
      customType: 0
      isPPtrCurve: 1
    - serializedVersion: 2
      path: 0
      attribute: 0
      script: {fileID: 0}
      typeID: 212
      customType: 23
      isPPtrCurve: 1
    pptrCurveMapping:
    - {fileID: 21300014, guid: 9d69ae98725365b4b94189120dc1b40a, type: 3}
    - {fileID: 21300016, guid: 9d69ae98725365b4b94189120dc1b40a, type: 3}
    - {fileID: 21300018, guid: 9d69ae98725365b4b94189120dc1b40a, type: 3}
    - {fileID: 21300020, guid: 9d69ae98725365b4b94189120dc1b40a, type: 3}
    - {fileID: 21300022, guid: 9d69ae98725365b4b94189120dc1b40a, type: 3}
    - {fileID: 21300024, guid: 9d69ae98725365b4b94189120dc1b40a, type: 3}
    - {fileID: 21300026, guid: 9d69ae98725365b4b94189120dc1b40a, type: 3}
    - {fileID: 21300028, guid: 9d69ae98725365b4b94189120dc1b40a, type: 3}
    - {fileID: 21300016, guid: 9d69ae98725365b4b94189120dc1b40a, type: 3}
    - {fileID: 21300014, guid: 9d69ae98725365b4b94189120dc1b40a, type: 3}
    - {fileID: 21300016, guid: 9d69ae98725365b4b94189120dc1b40a, type: 3}
    - {fileID: 21300018, guid: 9d69ae98725365b4b94189120dc1b40a, type: 3}
    - {fileID: 21300020, guid: 9d69ae98725365b4b94189120dc1b40a, type: 3}
    - {fileID: 21300022, guid: 9d69ae98725365b4b94189120dc1b40a, type: 3}
    - {fileID: 21300024, guid: 9d69ae98725365b4b94189120dc1b40a, type: 3}
    - {fileID: 21300026, guid: 9d69ae98725365b4b94189120dc1b40a, type: 3}
    - {fileID: 21300028, guid: 9d69ae98725365b4b94189120dc1b40a, type: 3}
    - {fileID: 21300016, guid: 9d69ae98725365b4b94189120dc1b40a, type: 3}
  m_AnimationClipSettings:
    serializedVersion: 2
    m_AdditiveReferencePoseClip: {fileID: 0}
    m_AdditiveReferencePoseTime: 0
    m_StartTime: 0
    m_StopTime: 1.25
    m_OrientationOffsetY: 0
    m_Level: 0
    m_CycleOffset: 0
    m_HasAdditiveReferencePose: 0
    m_LoopTime: 0
    m_LoopBlend: 0
    m_LoopBlendOrientation: 0
    m_LoopBlendPositionY: 0
    m_LoopBlendPositionXZ: 0
    m_KeepOriginalOrientation: 0
    m_KeepOriginalPositionY: 1
    m_KeepOriginalPositionXZ: 0
    m_HeightFromFeet: 0
    m_Mirror: 0
  m_EditorCurves: []
  m_EulerEditorCurves: []
  m_HasGenericRootTransform: 0
  m_HasMotionFloatCurves: 0
  m_GenerateMotionCurves: 0
  m_Events: []
--- !u!74 &7400002
AnimationClip:
  m_ObjectHideFlags: 0
  m_CorrespondingSourceObject: {fileID: 0}
  m_PrefabInternal: {fileID: 0}
  m_Name: Idle0
  serializedVersion: 6
  m_Legacy: 0
  m_Compressed: 0
  m_UseHighQualityCurve: 1
  m_RotationCurves: []
  m_CompressedRotationCurves: []
  m_EulerCurves: []
  m_PositionCurves: []
  m_ScaleCurves: []
  m_FloatCurves: []
  m_PPtrCurves:
  - curve:
    - time: 0
      value: {fileID: 21300002, guid: 9d69ae98725365b4b94189120dc1b40a, type: 3}
    - time: 0.5
      value: {fileID: 21300004, guid: 9d69ae98725365b4b94189120dc1b40a, type: 3}
    - time: 1
      value: {fileID: 21300002, guid: 9d69ae98725365b4b94189120dc1b40a, type: 3}
    - time: 1.5
      value: {fileID: 21300004, guid: 9d69ae98725365b4b94189120dc1b40a, type: 3}
    - time: 2
      value: {fileID: 21300002, guid: 9d69ae98725365b4b94189120dc1b40a, type: 3}
    - time: 2.5
      value: {fileID: 21300000, guid: 9d69ae98725365b4b94189120dc1b40a, type: 3}
    - time: 2.75
      value: {fileID: 21300004, guid: 9d69ae98725365b4b94189120dc1b40a, type: 3}
    attribute: m_Sprite
    path: 
    classID: 114
    script: {fileID: -765806418, guid: f5f67c52d1564df4a8936ccd202a3bd8, type: 3}
  - curve:
    - time: 0
      value: {fileID: 21300002, guid: 9d69ae98725365b4b94189120dc1b40a, type: 3}
    - time: 0.5
      value: {fileID: 21300004, guid: 9d69ae98725365b4b94189120dc1b40a, type: 3}
    - time: 1
      value: {fileID: 21300002, guid: 9d69ae98725365b4b94189120dc1b40a, type: 3}
    - time: 1.5
      value: {fileID: 21300004, guid: 9d69ae98725365b4b94189120dc1b40a, type: 3}
    - time: 2
      value: {fileID: 21300002, guid: 9d69ae98725365b4b94189120dc1b40a, type: 3}
    - time: 2.5
      value: {fileID: 21300000, guid: 9d69ae98725365b4b94189120dc1b40a, type: 3}
    - time: 2.75
      value: {fileID: 21300004, guid: 9d69ae98725365b4b94189120dc1b40a, type: 3}
    attribute: m_Sprite
    path: 
    classID: 212
    script: {fileID: 0}
  m_SampleRate: 4
  m_WrapMode: 0
  m_Bounds:
    m_Center: {x: 0, y: 0, z: 0}
    m_Extent: {x: 0, y: 0, z: 0}
  m_ClipBindingConstant:
    genericBindings:
    - serializedVersion: 2
      path: 0
      attribute: 2015549526
      script: {fileID: -765806418, guid: f5f67c52d1564df4a8936ccd202a3bd8, type: 3}
      typeID: 114
      customType: 0
      isPPtrCurve: 1
    - serializedVersion: 2
      path: 0
      attribute: 0
      script: {fileID: 0}
      typeID: 212
      customType: 23
      isPPtrCurve: 1
    pptrCurveMapping:
    - {fileID: 21300002, guid: 9d69ae98725365b4b94189120dc1b40a, type: 3}
    - {fileID: 21300004, guid: 9d69ae98725365b4b94189120dc1b40a, type: 3}
    - {fileID: 21300002, guid: 9d69ae98725365b4b94189120dc1b40a, type: 3}
    - {fileID: 21300004, guid: 9d69ae98725365b4b94189120dc1b40a, type: 3}
    - {fileID: 21300002, guid: 9d69ae98725365b4b94189120dc1b40a, type: 3}
    - {fileID: 21300000, guid: 9d69ae98725365b4b94189120dc1b40a, type: 3}
    - {fileID: 21300004, guid: 9d69ae98725365b4b94189120dc1b40a, type: 3}
    - {fileID: 21300002, guid: 9d69ae98725365b4b94189120dc1b40a, type: 3}
    - {fileID: 21300004, guid: 9d69ae98725365b4b94189120dc1b40a, type: 3}
    - {fileID: 21300002, guid: 9d69ae98725365b4b94189120dc1b40a, type: 3}
    - {fileID: 21300004, guid: 9d69ae98725365b4b94189120dc1b40a, type: 3}
    - {fileID: 21300002, guid: 9d69ae98725365b4b94189120dc1b40a, type: 3}
    - {fileID: 21300000, guid: 9d69ae98725365b4b94189120dc1b40a, type: 3}
    - {fileID: 21300004, guid: 9d69ae98725365b4b94189120dc1b40a, type: 3}
  m_AnimationClipSettings:
    serializedVersion: 2
    m_AdditiveReferencePoseClip: {fileID: 0}
    m_AdditiveReferencePoseTime: 0
    m_StartTime: 0
    m_StopTime: 3
    m_OrientationOffsetY: 0
    m_Level: 0
    m_CycleOffset: 0
    m_HasAdditiveReferencePose: 0
    m_LoopTime: 1
    m_LoopBlend: 0
    m_LoopBlendOrientation: 0
    m_LoopBlendPositionY: 0
    m_LoopBlendPositionXZ: 0
    m_KeepOriginalOrientation: 0
    m_KeepOriginalPositionY: 1
    m_KeepOriginalPositionXZ: 0
    m_HeightFromFeet: 0
    m_Mirror: 0
  m_EditorCurves: []
  m_EulerEditorCurves: []
  m_HasGenericRootTransform: 0
  m_HasMotionFloatCurves: 0
  m_GenerateMotionCurves: 0
  m_Events: []
--- !u!74 &7400004
AnimationClip:
  m_ObjectHideFlags: 0
  m_CorrespondingSourceObject: {fileID: 0}
  m_PrefabInternal: {fileID: 0}
  m_Name: Idle1
  serializedVersion: 6
  m_Legacy: 0
  m_Compressed: 0
  m_UseHighQualityCurve: 1
  m_RotationCurves: []
  m_CompressedRotationCurves: []
  m_EulerCurves: []
  m_PositionCurves: []
  m_ScaleCurves: []
  m_FloatCurves: []
  m_PPtrCurves:
  - curve:
    - time: 0
      value: {fileID: 21300004, guid: 9d69ae98725365b4b94189120dc1b40a, type: 3}
    - time: 1
      value: {fileID: 21300004, guid: 9d69ae98725365b4b94189120dc1b40a, type: 3}
    attribute: m_Sprite
    path: 
    classID: 114
    script: {fileID: -765806418, guid: f5f67c52d1564df4a8936ccd202a3bd8, type: 3}
  - curve:
    - time: 0
      value: {fileID: 21300004, guid: 9d69ae98725365b4b94189120dc1b40a, type: 3}
    - time: 1
      value: {fileID: 21300004, guid: 9d69ae98725365b4b94189120dc1b40a, type: 3}
    attribute: m_Sprite
    path: 
    classID: 212
    script: {fileID: 0}
  m_SampleRate: 4
  m_WrapMode: 0
  m_Bounds:
    m_Center: {x: 0, y: 0, z: 0}
    m_Extent: {x: 0, y: 0, z: 0}
  m_ClipBindingConstant:
    genericBindings:
    - serializedVersion: 2
      path: 0
      attribute: 2015549526
      script: {fileID: -765806418, guid: f5f67c52d1564df4a8936ccd202a3bd8, type: 3}
      typeID: 114
      customType: 0
      isPPtrCurve: 1
    - serializedVersion: 2
      path: 0
      attribute: 0
      script: {fileID: 0}
      typeID: 212
      customType: 23
      isPPtrCurve: 1
    pptrCurveMapping:
    - {fileID: 21300004, guid: 9d69ae98725365b4b94189120dc1b40a, type: 3}
    - {fileID: 21300004, guid: 9d69ae98725365b4b94189120dc1b40a, type: 3}
    - {fileID: 21300004, guid: 9d69ae98725365b4b94189120dc1b40a, type: 3}
    - {fileID: 21300004, guid: 9d69ae98725365b4b94189120dc1b40a, type: 3}
  m_AnimationClipSettings:
    serializedVersion: 2
    m_AdditiveReferencePoseClip: {fileID: 0}
    m_AdditiveReferencePoseTime: 0
    m_StartTime: 0
    m_StopTime: 1.25
    m_OrientationOffsetY: 0
    m_Level: 0
    m_CycleOffset: 0
    m_HasAdditiveReferencePose: 0
    m_LoopTime: 0
    m_LoopBlend: 0
    m_LoopBlendOrientation: 0
    m_LoopBlendPositionY: 0
    m_LoopBlendPositionXZ: 0
    m_KeepOriginalOrientation: 0
    m_KeepOriginalPositionY: 1
    m_KeepOriginalPositionXZ: 0
    m_HeightFromFeet: 0
    m_Mirror: 0
  m_EditorCurves: []
  m_EulerEditorCurves: []
  m_HasGenericRootTransform: 0
  m_HasMotionFloatCurves: 0
  m_GenerateMotionCurves: 0
  m_Events: []
--- !u!74 &7400006
AnimationClip:
  m_ObjectHideFlags: 0
  m_CorrespondingSourceObject: {fileID: 0}
  m_PrefabInternal: {fileID: 0}
  m_Name: Idle2
  serializedVersion: 6
  m_Legacy: 0
  m_Compressed: 0
  m_UseHighQualityCurve: 1
  m_RotationCurves: []
  m_CompressedRotationCurves: []
  m_EulerCurves: []
  m_PositionCurves: []
  m_ScaleCurves: []
  m_FloatCurves: []
  m_PPtrCurves:
  - curve:
    - time: 0
      value: {fileID: 21300004, guid: 9d69ae98725365b4b94189120dc1b40a, type: 3}
    - time: 0.25
      value: {fileID: 21300000, guid: 9d69ae98725365b4b94189120dc1b40a, type: 3}
    - time: 0.5
      value: {fileID: 21300004, guid: 9d69ae98725365b4b94189120dc1b40a, type: 3}
    - time: 2
      value: {fileID: 21300004, guid: 9d69ae98725365b4b94189120dc1b40a, type: 3}
    attribute: m_Sprite
    path: 
    classID: 114
    script: {fileID: -765806418, guid: f5f67c52d1564df4a8936ccd202a3bd8, type: 3}
  - curve:
    - time: 0
      value: {fileID: 21300004, guid: 9d69ae98725365b4b94189120dc1b40a, type: 3}
    - time: 0.25
      value: {fileID: 21300000, guid: 9d69ae98725365b4b94189120dc1b40a, type: 3}
    - time: 0.5
      value: {fileID: 21300004, guid: 9d69ae98725365b4b94189120dc1b40a, type: 3}
    - time: 2
      value: {fileID: 21300004, guid: 9d69ae98725365b4b94189120dc1b40a, type: 3}
    attribute: m_Sprite
    path: 
    classID: 212
    script: {fileID: 0}
  m_SampleRate: 4
  m_WrapMode: 0
  m_Bounds:
    m_Center: {x: 0, y: 0, z: 0}
    m_Extent: {x: 0, y: 0, z: 0}
  m_ClipBindingConstant:
    genericBindings:
    - serializedVersion: 2
      path: 0
      attribute: 2015549526
      script: {fileID: -765806418, guid: f5f67c52d1564df4a8936ccd202a3bd8, type: 3}
      typeID: 114
      customType: 0
      isPPtrCurve: 1
    - serializedVersion: 2
      path: 0
      attribute: 0
      script: {fileID: 0}
      typeID: 212
      customType: 23
      isPPtrCurve: 1
    pptrCurveMapping:
    - {fileID: 21300004, guid: 9d69ae98725365b4b94189120dc1b40a, type: 3}
    - {fileID: 21300000, guid: 9d69ae98725365b4b94189120dc1b40a, type: 3}
    - {fileID: 21300004, guid: 9d69ae98725365b4b94189120dc1b40a, type: 3}
    - {fileID: 21300004, guid: 9d69ae98725365b4b94189120dc1b40a, type: 3}
    - {fileID: 21300004, guid: 9d69ae98725365b4b94189120dc1b40a, type: 3}
    - {fileID: 21300000, guid: 9d69ae98725365b4b94189120dc1b40a, type: 3}
    - {fileID: 21300004, guid: 9d69ae98725365b4b94189120dc1b40a, type: 3}
    - {fileID: 21300004, guid: 9d69ae98725365b4b94189120dc1b40a, type: 3}
  m_AnimationClipSettings:
    serializedVersion: 2
    m_AdditiveReferencePoseClip: {fileID: 0}
    m_AdditiveReferencePoseTime: 0
    m_StartTime: 0
    m_StopTime: 2.25
    m_OrientationOffsetY: 0
    m_Level: 0
    m_CycleOffset: 0
    m_HasAdditiveReferencePose: 0
    m_LoopTime: 0
    m_LoopBlend: 0
    m_LoopBlendOrientation: 0
    m_LoopBlendPositionY: 0
    m_LoopBlendPositionXZ: 0
    m_KeepOriginalOrientation: 0
    m_KeepOriginalPositionY: 1
    m_KeepOriginalPositionXZ: 0
    m_HeightFromFeet: 0
    m_Mirror: 0
  m_EditorCurves: []
  m_EulerEditorCurves: []
  m_HasGenericRootTransform: 0
  m_HasMotionFloatCurves: 0
  m_GenerateMotionCurves: 0
  m_Events: []
--- !u!74 &7400008
AnimationClip:
  m_ObjectHideFlags: 0
  m_CorrespondingSourceObject: {fileID: 0}
  m_PrefabInternal: {fileID: 0}
  m_Name: Walk
  serializedVersion: 6
  m_Legacy: 0
  m_Compressed: 0
  m_UseHighQualityCurve: 1
  m_RotationCurves: []
  m_CompressedRotationCurves: []
  m_EulerCurves: []
  m_PositionCurves: []
  m_ScaleCurves: []
  m_FloatCurves: []
  m_PPtrCurves:
  - curve:
    - time: 0
      value: {fileID: 21300002, guid: 9d69ae98725365b4b94189120dc1b40a, type: 3}
    - time: 0.125
      value: {fileID: 21300004, guid: 9d69ae98725365b4b94189120dc1b40a, type: 3}
    - time: 0.25
      value: {fileID: 21300006, guid: 9d69ae98725365b4b94189120dc1b40a, type: 3}
    - time: 0.375
      value: {fileID: 21300008, guid: 9d69ae98725365b4b94189120dc1b40a, type: 3}
    - time: 0.5
      value: {fileID: 21300010, guid: 9d69ae98725365b4b94189120dc1b40a, type: 3}
    - time: 0.75
      value: {fileID: 21300012, guid: 9d69ae98725365b4b94189120dc1b40a, type: 3}
    - time: 0.875
      value: {fileID: 21300014, guid: 9d69ae98725365b4b94189120dc1b40a, type: 3}
    - time: 1
      value: {fileID: 21300016, guid: 9d69ae98725365b4b94189120dc1b40a, type: 3}
    attribute: m_Sprite
    path: 
    classID: 114
    script: {fileID: -765806418, guid: f5f67c52d1564df4a8936ccd202a3bd8, type: 3}
  - curve:
    - time: 0
      value: {fileID: 21300002, guid: 9d69ae98725365b4b94189120dc1b40a, type: 3}
    - time: 0.125
      value: {fileID: 21300004, guid: 9d69ae98725365b4b94189120dc1b40a, type: 3}
    - time: 0.25
      value: {fileID: 21300006, guid: 9d69ae98725365b4b94189120dc1b40a, type: 3}
    - time: 0.375
      value: {fileID: 21300008, guid: 9d69ae98725365b4b94189120dc1b40a, type: 3}
    - time: 0.5
      value: {fileID: 21300010, guid: 9d69ae98725365b4b94189120dc1b40a, type: 3}
    - time: 0.75
      value: {fileID: 21300012, guid: 9d69ae98725365b4b94189120dc1b40a, type: 3}
    - time: 0.875
      value: {fileID: 21300014, guid: 9d69ae98725365b4b94189120dc1b40a, type: 3}
    - time: 1
      value: {fileID: 21300016, guid: 9d69ae98725365b4b94189120dc1b40a, type: 3}
    attribute: m_Sprite
    path: 
    classID: 212
    script: {fileID: 0}
  m_SampleRate: 8
  m_WrapMode: 0
  m_Bounds:
    m_Center: {x: 0, y: 0, z: 0}
    m_Extent: {x: 0, y: 0, z: 0}
  m_ClipBindingConstant:
    genericBindings:
    - serializedVersion: 2
      path: 0
      attribute: 2015549526
      script: {fileID: -765806418, guid: f5f67c52d1564df4a8936ccd202a3bd8, type: 3}
      typeID: 114
      customType: 0
      isPPtrCurve: 1
    - serializedVersion: 2
      path: 0
      attribute: 0
      script: {fileID: 0}
      typeID: 212
      customType: 23
      isPPtrCurve: 1
    pptrCurveMapping:
    - {fileID: 21300002, guid: 9d69ae98725365b4b94189120dc1b40a, type: 3}
    - {fileID: 21300004, guid: 9d69ae98725365b4b94189120dc1b40a, type: 3}
    - {fileID: 21300006, guid: 9d69ae98725365b4b94189120dc1b40a, type: 3}
    - {fileID: 21300008, guid: 9d69ae98725365b4b94189120dc1b40a, type: 3}
    - {fileID: 21300010, guid: 9d69ae98725365b4b94189120dc1b40a, type: 3}
    - {fileID: 21300012, guid: 9d69ae98725365b4b94189120dc1b40a, type: 3}
    - {fileID: 21300014, guid: 9d69ae98725365b4b94189120dc1b40a, type: 3}
    - {fileID: 21300016, guid: 9d69ae98725365b4b94189120dc1b40a, type: 3}
    - {fileID: 21300002, guid: 9d69ae98725365b4b94189120dc1b40a, type: 3}
    - {fileID: 21300004, guid: 9d69ae98725365b4b94189120dc1b40a, type: 3}
    - {fileID: 21300006, guid: 9d69ae98725365b4b94189120dc1b40a, type: 3}
    - {fileID: 21300008, guid: 9d69ae98725365b4b94189120dc1b40a, type: 3}
    - {fileID: 21300010, guid: 9d69ae98725365b4b94189120dc1b40a, type: 3}
    - {fileID: 21300012, guid: 9d69ae98725365b4b94189120dc1b40a, type: 3}
    - {fileID: 21300014, guid: 9d69ae98725365b4b94189120dc1b40a, type: 3}
    - {fileID: 21300016, guid: 9d69ae98725365b4b94189120dc1b40a, type: 3}
  m_AnimationClipSettings:
    serializedVersion: 2
    m_AdditiveReferencePoseClip: {fileID: 0}
    m_AdditiveReferencePoseTime: 0
    m_StartTime: 0
    m_StopTime: 1.125
    m_OrientationOffsetY: 0
    m_Level: 0
    m_CycleOffset: 0
    m_HasAdditiveReferencePose: 0
    m_LoopTime: 1
    m_LoopBlend: 0
    m_LoopBlendOrientation: 0
    m_LoopBlendPositionY: 0
    m_LoopBlendPositionXZ: 0
    m_KeepOriginalOrientation: 0
    m_KeepOriginalPositionY: 1
    m_KeepOriginalPositionXZ: 0
    m_HeightFromFeet: 0
    m_Mirror: 0
  m_EditorCurves: []
  m_EulerEditorCurves: []
  m_HasGenericRootTransform: 0
  m_HasMotionFloatCurves: 0
  m_GenerateMotionCurves: 0
  m_Events: []
--- !u!74 &7403756
AnimationClip:
  m_ObjectHideFlags: 3
  m_CorrespondingSourceObject: {fileID: 0}
  m_PrefabInternal: {fileID: 0}
  m_Name: Idle2
  serializedVersion: 6
  m_Legacy: 0
  m_Compressed: 0
  m_UseHighQualityCurve: 1
  m_RotationCurves: []
  m_CompressedRotationCurves: []
  m_EulerCurves: []
  m_PositionCurves: []
  m_ScaleCurves: []
  m_FloatCurves: []
  m_PPtrCurves:
  - curve:
    - time: 0
      value: {fileID: 21304568, guid: 9d69ae98725365b4b94189120dc1b40a, type: 3}
    - time: 0.25
      value: {fileID: 21304582, guid: 9d69ae98725365b4b94189120dc1b40a, type: 3}
    - time: 0.5
      value: {fileID: 21304580, guid: 9d69ae98725365b4b94189120dc1b40a, type: 3}
    - time: 0.75
      value: {fileID: 21304582, guid: 9d69ae98725365b4b94189120dc1b40a, type: 3}
    attribute: m_Sprite
    path: 
    classID: 114
    script: {fileID: -765806418, guid: f5f67c52d1564df4a8936ccd202a3bd8, type: 3}
  - curve:
    - time: 0
      value: {fileID: 21304568, guid: 9d69ae98725365b4b94189120dc1b40a, type: 3}
    - time: 0.25
      value: {fileID: 21304582, guid: 9d69ae98725365b4b94189120dc1b40a, type: 3}
    - time: 0.5
      value: {fileID: 21304580, guid: 9d69ae98725365b4b94189120dc1b40a, type: 3}
    - time: 0.75
      value: {fileID: 21304582, guid: 9d69ae98725365b4b94189120dc1b40a, type: 3}
    attribute: m_Sprite
    path: 
    classID: 212
    script: {fileID: 0}
  m_SampleRate: 4
  m_WrapMode: 0
  m_Bounds:
    m_Center: {x: 0, y: 0, z: 0}
    m_Extent: {x: 0, y: 0, z: 0}
  m_ClipBindingConstant:
    genericBindings:
    - serializedVersion: 2
      path: 0
      attribute: 2015549526
      script: {fileID: -765806418, guid: f5f67c52d1564df4a8936ccd202a3bd8, type: 3}
      typeID: 114
      customType: 0
      isPPtrCurve: 1
    - serializedVersion: 2
      path: 0
      attribute: 0
      script: {fileID: 0}
      typeID: 212
      customType: 23
      isPPtrCurve: 1
    pptrCurveMapping:
    - {fileID: 21304568, guid: 9d69ae98725365b4b94189120dc1b40a, type: 3}
    - {fileID: 21304582, guid: 9d69ae98725365b4b94189120dc1b40a, type: 3}
    - {fileID: 21304580, guid: 9d69ae98725365b4b94189120dc1b40a, type: 3}
    - {fileID: 21304582, guid: 9d69ae98725365b4b94189120dc1b40a, type: 3}
    - {fileID: 21304568, guid: 9d69ae98725365b4b94189120dc1b40a, type: 3}
    - {fileID: 21304582, guid: 9d69ae98725365b4b94189120dc1b40a, type: 3}
    - {fileID: 21304580, guid: 9d69ae98725365b4b94189120dc1b40a, type: 3}
    - {fileID: 21304582, guid: 9d69ae98725365b4b94189120dc1b40a, type: 3}
  m_AnimationClipSettings:
    serializedVersion: 2
    m_AdditiveReferencePoseClip: {fileID: 0}
    m_AdditiveReferencePoseTime: 0
    m_StartTime: 0
    m_StopTime: 1
    m_OrientationOffsetY: 0
    m_Level: 0
    m_CycleOffset: 0
    m_HasAdditiveReferencePose: 0
    m_LoopTime: 1
    m_LoopBlend: 0
    m_LoopBlendOrientation: 0
    m_LoopBlendPositionY: 0
    m_LoopBlendPositionXZ: 0
    m_KeepOriginalOrientation: 0
    m_KeepOriginalPositionY: 1
    m_KeepOriginalPositionXZ: 0
    m_HeightFromFeet: 0
    m_Mirror: 0
  m_EditorCurves: []
  m_EulerEditorCurves: []
  m_HasGenericRootTransform: 0
  m_HasMotionFloatCurves: 0
  m_GenerateMotionCurves: 0
  m_Events: []
--- !u!74 &7405606
AnimationClip:
  m_ObjectHideFlags: 3
  m_CorrespondingSourceObject: {fileID: 0}
  m_PrefabInternal: {fileID: 0}
  m_Name: Walk
  serializedVersion: 6
  m_Legacy: 0
  m_Compressed: 0
  m_UseHighQualityCurve: 1
  m_RotationCurves: []
  m_CompressedRotationCurves: []
  m_EulerCurves: []
  m_PositionCurves: []
  m_ScaleCurves: []
  m_FloatCurves: []
  m_PPtrCurves:
  - curve:
    - time: -0
      value: {fileID: 21304568, guid: 9d69ae98725365b4b94189120dc1b40a, type: 3}
    - time: 0.125
      value: {fileID: 21304570, guid: 9d69ae98725365b4b94189120dc1b40a, type: 3}
    - time: 0.25
      value: {fileID: 21304572, guid: 9d69ae98725365b4b94189120dc1b40a, type: 3}
    - time: 0.375
      value: {fileID: 21304574, guid: 9d69ae98725365b4b94189120dc1b40a, type: 3}
    - time: 0.5
      value: {fileID: 21304576, guid: 9d69ae98725365b4b94189120dc1b40a, type: 3}
    - time: 0.625
      value: {fileID: 21304578, guid: 9d69ae98725365b4b94189120dc1b40a, type: 3}
    - time: 0.75
      value: {fileID: 21304580, guid: 9d69ae98725365b4b94189120dc1b40a, type: 3}
    - time: 0.875
      value: {fileID: 21304582, guid: 9d69ae98725365b4b94189120dc1b40a, type: 3}
    attribute: m_Sprite
    path: 
    classID: 114
    script: {fileID: -765806418, guid: f5f67c52d1564df4a8936ccd202a3bd8, type: 3}
  - curve:
    - time: 0
      value: {fileID: 21304568, guid: 9d69ae98725365b4b94189120dc1b40a, type: 3}
    - time: 0.125
      value: {fileID: 21304570, guid: 9d69ae98725365b4b94189120dc1b40a, type: 3}
    - time: 0.25
      value: {fileID: 21304572, guid: 9d69ae98725365b4b94189120dc1b40a, type: 3}
    - time: 0.375
      value: {fileID: 21304574, guid: 9d69ae98725365b4b94189120dc1b40a, type: 3}
    - time: 0.5
      value: {fileID: 21304576, guid: 9d69ae98725365b4b94189120dc1b40a, type: 3}
    - time: 0.625
      value: {fileID: 21304578, guid: 9d69ae98725365b4b94189120dc1b40a, type: 3}
    - time: 0.75
      value: {fileID: 21304580, guid: 9d69ae98725365b4b94189120dc1b40a, type: 3}
    - time: 0.875
      value: {fileID: 21304582, guid: 9d69ae98725365b4b94189120dc1b40a, type: 3}
    attribute: m_Sprite
    path: 
    classID: 212
    script: {fileID: 0}
  m_SampleRate: 8
  m_WrapMode: 0
  m_Bounds:
    m_Center: {x: 0, y: 0, z: 0}
    m_Extent: {x: 0, y: 0, z: 0}
  m_ClipBindingConstant:
    genericBindings:
    - serializedVersion: 2
      path: 0
      attribute: 2015549526
      script: {fileID: -765806418, guid: f5f67c52d1564df4a8936ccd202a3bd8, type: 3}
      typeID: 114
      customType: 0
      isPPtrCurve: 1
    - serializedVersion: 2
      path: 0
      attribute: 0
      script: {fileID: 0}
      typeID: 212
      customType: 23
      isPPtrCurve: 1
    pptrCurveMapping:
    - {fileID: 21304568, guid: 9d69ae98725365b4b94189120dc1b40a, type: 3}
    - {fileID: 21304570, guid: 9d69ae98725365b4b94189120dc1b40a, type: 3}
    - {fileID: 21304572, guid: 9d69ae98725365b4b94189120dc1b40a, type: 3}
    - {fileID: 21304574, guid: 9d69ae98725365b4b94189120dc1b40a, type: 3}
    - {fileID: 21304576, guid: 9d69ae98725365b4b94189120dc1b40a, type: 3}
    - {fileID: 21304578, guid: 9d69ae98725365b4b94189120dc1b40a, type: 3}
    - {fileID: 21304580, guid: 9d69ae98725365b4b94189120dc1b40a, type: 3}
    - {fileID: 21304582, guid: 9d69ae98725365b4b94189120dc1b40a, type: 3}
    - {fileID: 21304568, guid: 9d69ae98725365b4b94189120dc1b40a, type: 3}
    - {fileID: 21304570, guid: 9d69ae98725365b4b94189120dc1b40a, type: 3}
    - {fileID: 21304572, guid: 9d69ae98725365b4b94189120dc1b40a, type: 3}
    - {fileID: 21304574, guid: 9d69ae98725365b4b94189120dc1b40a, type: 3}
    - {fileID: 21304576, guid: 9d69ae98725365b4b94189120dc1b40a, type: 3}
    - {fileID: 21304578, guid: 9d69ae98725365b4b94189120dc1b40a, type: 3}
    - {fileID: 21304580, guid: 9d69ae98725365b4b94189120dc1b40a, type: 3}
    - {fileID: 21304582, guid: 9d69ae98725365b4b94189120dc1b40a, type: 3}
  m_AnimationClipSettings:
    serializedVersion: 2
    m_AdditiveReferencePoseClip: {fileID: 0}
    m_AdditiveReferencePoseTime: 0
    m_StartTime: 0
    m_StopTime: 1
    m_OrientationOffsetY: 0
    m_Level: 0
    m_CycleOffset: 0
    m_HasAdditiveReferencePose: 0
    m_LoopTime: 1
    m_LoopBlend: 0
    m_LoopBlendOrientation: 0
    m_LoopBlendPositionY: 0
    m_LoopBlendPositionXZ: 0
    m_KeepOriginalOrientation: 0
    m_KeepOriginalPositionY: 1
    m_KeepOriginalPositionXZ: 0
    m_HeightFromFeet: 0
    m_Mirror: 0
  m_EditorCurves: []
  m_EulerEditorCurves: []
  m_HasGenericRootTransform: 0
  m_HasMotionFloatCurves: 0
  m_GenerateMotionCurves: 0
  m_Events: []
--- !u!74 &7453720
AnimationClip:
  m_ObjectHideFlags: 3
  m_CorrespondingSourceObject: {fileID: 0}
  m_PrefabInternal: {fileID: 0}
  m_Name: Idle1
  serializedVersion: 6
  m_Legacy: 0
  m_Compressed: 0
  m_UseHighQualityCurve: 1
  m_RotationCurves: []
  m_CompressedRotationCurves: []
  m_EulerCurves: []
  m_PositionCurves: []
  m_ScaleCurves: []
  m_FloatCurves: []
  m_PPtrCurves:
  - curve:
    - time: 0
      value: {fileID: 21304568, guid: 9d69ae98725365b4b94189120dc1b40a, type: 3}
    - time: 0.25
      value: {fileID: 21304570, guid: 9d69ae98725365b4b94189120dc1b40a, type: 3}
    - time: 0.5
      value: {fileID: 21304572, guid: 9d69ae98725365b4b94189120dc1b40a, type: 3}
    - time: 0.75
      value: {fileID: 21304570, guid: 9d69ae98725365b4b94189120dc1b40a, type: 3}
    attribute: m_Sprite
    path: 
    classID: 114
    script: {fileID: -765806418, guid: f5f67c52d1564df4a8936ccd202a3bd8, type: 3}
  - curve:
    - time: 0
      value: {fileID: 21304568, guid: 9d69ae98725365b4b94189120dc1b40a, type: 3}
    - time: 0.25
      value: {fileID: 21304570, guid: 9d69ae98725365b4b94189120dc1b40a, type: 3}
    - time: 0.5
      value: {fileID: 21304572, guid: 9d69ae98725365b4b94189120dc1b40a, type: 3}
    - time: 0.75
      value: {fileID: 21304570, guid: 9d69ae98725365b4b94189120dc1b40a, type: 3}
    attribute: m_Sprite
    path: 
    classID: 212
    script: {fileID: 0}
  m_SampleRate: 4
  m_WrapMode: 0
  m_Bounds:
    m_Center: {x: 0, y: 0, z: 0}
    m_Extent: {x: 0, y: 0, z: 0}
  m_ClipBindingConstant:
    genericBindings:
    - serializedVersion: 2
      path: 0
      attribute: 2015549526
      script: {fileID: -765806418, guid: f5f67c52d1564df4a8936ccd202a3bd8, type: 3}
      typeID: 114
      customType: 0
      isPPtrCurve: 1
    - serializedVersion: 2
      path: 0
      attribute: 0
      script: {fileID: 0}
      typeID: 212
      customType: 23
      isPPtrCurve: 1
    pptrCurveMapping:
    - {fileID: 21304568, guid: 9d69ae98725365b4b94189120dc1b40a, type: 3}
    - {fileID: 21304570, guid: 9d69ae98725365b4b94189120dc1b40a, type: 3}
    - {fileID: 21304572, guid: 9d69ae98725365b4b94189120dc1b40a, type: 3}
    - {fileID: 21304570, guid: 9d69ae98725365b4b94189120dc1b40a, type: 3}
    - {fileID: 21304568, guid: 9d69ae98725365b4b94189120dc1b40a, type: 3}
    - {fileID: 21304570, guid: 9d69ae98725365b4b94189120dc1b40a, type: 3}
    - {fileID: 21304572, guid: 9d69ae98725365b4b94189120dc1b40a, type: 3}
    - {fileID: 21304570, guid: 9d69ae98725365b4b94189120dc1b40a, type: 3}
  m_AnimationClipSettings:
    serializedVersion: 2
    m_AdditiveReferencePoseClip: {fileID: 0}
    m_AdditiveReferencePoseTime: 0
    m_StartTime: 0
    m_StopTime: 1
    m_OrientationOffsetY: 0
    m_Level: 0
    m_CycleOffset: 0
    m_HasAdditiveReferencePose: 0
    m_LoopTime: 1
    m_LoopBlend: 0
    m_LoopBlendOrientation: 0
    m_LoopBlendPositionY: 0
    m_LoopBlendPositionXZ: 0
    m_KeepOriginalOrientation: 0
    m_KeepOriginalPositionY: 1
    m_KeepOriginalPositionXZ: 0
    m_HeightFromFeet: 0
    m_Mirror: 0
  m_EditorCurves: []
  m_EulerEditorCurves: []
  m_HasGenericRootTransform: 0
  m_HasMotionFloatCurves: 0
  m_GenerateMotionCurves: 0
  m_Events: []
--- !u!74 &7457704
AnimationClip:
  m_ObjectHideFlags: 3
  m_CorrespondingSourceObject: {fileID: 0}
  m_PrefabInternal: {fileID: 0}
  m_Name: Idle0
  serializedVersion: 6
  m_Legacy: 0
  m_Compressed: 0
  m_UseHighQualityCurve: 1
  m_RotationCurves: []
  m_CompressedRotationCurves: []
  m_EulerCurves: []
  m_PositionCurves: []
  m_ScaleCurves: []
  m_FloatCurves: []
  m_PPtrCurves:
  - curve:
    - time: 0
      value: {fileID: 21304568, guid: 9d69ae98725365b4b94189120dc1b40a, type: 3}
    - time: 0.25
      value: {fileID: 21304570, guid: 9d69ae98725365b4b94189120dc1b40a, type: 3}
    - time: 0.5
      value: {fileID: 21304572, guid: 9d69ae98725365b4b94189120dc1b40a, type: 3}
    - time: 0.75
      value: {fileID: 21304574, guid: 9d69ae98725365b4b94189120dc1b40a, type: 3}
    - time: 1
      value: {fileID: 21304576, guid: 9d69ae98725365b4b94189120dc1b40a, type: 3}
    - time: 1.25
      value: {fileID: 21304578, guid: 9d69ae98725365b4b94189120dc1b40a, type: 3}
    - time: 1.5
      value: {fileID: 21304580, guid: 9d69ae98725365b4b94189120dc1b40a, type: 3}
    - time: 1.75
      value: {fileID: 21304582, guid: 9d69ae98725365b4b94189120dc1b40a, type: 3}
    attribute: m_Sprite
    path: 
    classID: 114
    script: {fileID: -765806418, guid: f5f67c52d1564df4a8936ccd202a3bd8, type: 3}
  - curve:
    - time: 0
      value: {fileID: 21304568, guid: 9d69ae98725365b4b94189120dc1b40a, type: 3}
    - time: 0.25
      value: {fileID: 21304570, guid: 9d69ae98725365b4b94189120dc1b40a, type: 3}
    - time: 0.5
      value: {fileID: 21304572, guid: 9d69ae98725365b4b94189120dc1b40a, type: 3}
    - time: 0.75
      value: {fileID: 21304574, guid: 9d69ae98725365b4b94189120dc1b40a, type: 3}
    - time: 1
      value: {fileID: 21304576, guid: 9d69ae98725365b4b94189120dc1b40a, type: 3}
    - time: 1.25
      value: {fileID: 21304578, guid: 9d69ae98725365b4b94189120dc1b40a, type: 3}
    - time: 1.5
      value: {fileID: 21304580, guid: 9d69ae98725365b4b94189120dc1b40a, type: 3}
    - time: 1.75
      value: {fileID: 21304582, guid: 9d69ae98725365b4b94189120dc1b40a, type: 3}
    attribute: m_Sprite
    path: 
    classID: 212
    script: {fileID: 0}
  m_SampleRate: 4
  m_WrapMode: 0
  m_Bounds:
    m_Center: {x: 0, y: 0, z: 0}
    m_Extent: {x: 0, y: 0, z: 0}
  m_ClipBindingConstant:
    genericBindings:
    - serializedVersion: 2
      path: 0
      attribute: 2015549526
      script: {fileID: -765806418, guid: f5f67c52d1564df4a8936ccd202a3bd8, type: 3}
      typeID: 114
      customType: 0
      isPPtrCurve: 1
    - serializedVersion: 2
      path: 0
      attribute: 0
      script: {fileID: 0}
      typeID: 212
      customType: 23
      isPPtrCurve: 1
    pptrCurveMapping:
    - {fileID: 21304568, guid: 9d69ae98725365b4b94189120dc1b40a, type: 3}
    - {fileID: 21304570, guid: 9d69ae98725365b4b94189120dc1b40a, type: 3}
    - {fileID: 21304572, guid: 9d69ae98725365b4b94189120dc1b40a, type: 3}
    - {fileID: 21304574, guid: 9d69ae98725365b4b94189120dc1b40a, type: 3}
    - {fileID: 21304576, guid: 9d69ae98725365b4b94189120dc1b40a, type: 3}
    - {fileID: 21304578, guid: 9d69ae98725365b4b94189120dc1b40a, type: 3}
    - {fileID: 21304580, guid: 9d69ae98725365b4b94189120dc1b40a, type: 3}
    - {fileID: 21304582, guid: 9d69ae98725365b4b94189120dc1b40a, type: 3}
    - {fileID: 21304568, guid: 9d69ae98725365b4b94189120dc1b40a, type: 3}
    - {fileID: 21304570, guid: 9d69ae98725365b4b94189120dc1b40a, type: 3}
    - {fileID: 21304572, guid: 9d69ae98725365b4b94189120dc1b40a, type: 3}
    - {fileID: 21304574, guid: 9d69ae98725365b4b94189120dc1b40a, type: 3}
    - {fileID: 21304576, guid: 9d69ae98725365b4b94189120dc1b40a, type: 3}
    - {fileID: 21304578, guid: 9d69ae98725365b4b94189120dc1b40a, type: 3}
    - {fileID: 21304580, guid: 9d69ae98725365b4b94189120dc1b40a, type: 3}
    - {fileID: 21304582, guid: 9d69ae98725365b4b94189120dc1b40a, type: 3}
  m_AnimationClipSettings:
    serializedVersion: 2
    m_AdditiveReferencePoseClip: {fileID: 0}
    m_AdditiveReferencePoseTime: 0
    m_StartTime: 0
    m_StopTime: 2
    m_OrientationOffsetY: 0
    m_Level: 0
    m_CycleOffset: 0
    m_HasAdditiveReferencePose: 0
    m_LoopTime: 1
    m_LoopBlend: 0
    m_LoopBlendOrientation: 0
    m_LoopBlendPositionY: 0
    m_LoopBlendPositionXZ: 0
    m_KeepOriginalOrientation: 0
    m_KeepOriginalPositionY: 1
    m_KeepOriginalPositionXZ: 0
    m_HeightFromFeet: 0
    m_Mirror: 0
  m_EditorCurves: []
  m_EulerEditorCurves: []
  m_HasGenericRootTransform: 0
  m_HasMotionFloatCurves: 0
  m_GenerateMotionCurves: 0
  m_Events: []
--- !u!74 &7462652
AnimationClip:
  m_ObjectHideFlags: 3
  m_CorrespondingSourceObject: {fileID: 0}
  m_PrefabInternal: {fileID: 0}
  m_Name: Attack
  serializedVersion: 6
  m_Legacy: 0
  m_Compressed: 0
  m_UseHighQualityCurve: 1
  m_RotationCurves: []
  m_CompressedRotationCurves: []
  m_EulerCurves: []
  m_PositionCurves: []
  m_ScaleCurves: []
  m_FloatCurves: []
  m_PPtrCurves:
  - curve:
    - time: 0
      value: {fileID: 21304568, guid: 9d69ae98725365b4b94189120dc1b40a, type: 3}
    - time: 0.125
      value: {fileID: 21304584, guid: 9d69ae98725365b4b94189120dc1b40a, type: 3}
    - time: 0.25
      value: {fileID: 21304586, guid: 9d69ae98725365b4b94189120dc1b40a, type: 3}
    - time: 0.375
      value: {fileID: 21304588, guid: 9d69ae98725365b4b94189120dc1b40a, type: 3}
    - time: 0.5
      value: {fileID: 21304590, guid: 9d69ae98725365b4b94189120dc1b40a, type: 3}
    - time: 0.625
      value: {fileID: 21304592, guid: 9d69ae98725365b4b94189120dc1b40a, type: 3}
    - time: 0.75
      value: {fileID: 21304584, guid: 9d69ae98725365b4b94189120dc1b40a, type: 3}
    attribute: m_Sprite
    path: 
    classID: 114
    script: {fileID: -765806418, guid: f5f67c52d1564df4a8936ccd202a3bd8, type: 3}
  - curve:
    - time: 0
      value: {fileID: 21304568, guid: 9d69ae98725365b4b94189120dc1b40a, type: 3}
    - time: 0.125
      value: {fileID: 21304584, guid: 9d69ae98725365b4b94189120dc1b40a, type: 3}
    - time: 0.25
      value: {fileID: 21304586, guid: 9d69ae98725365b4b94189120dc1b40a, type: 3}
    - time: 0.375
      value: {fileID: 21304588, guid: 9d69ae98725365b4b94189120dc1b40a, type: 3}
    - time: 0.5
      value: {fileID: 21304590, guid: 9d69ae98725365b4b94189120dc1b40a, type: 3}
    - time: 0.625
      value: {fileID: 21304592, guid: 9d69ae98725365b4b94189120dc1b40a, type: 3}
    - time: 0.75
      value: {fileID: 21304584, guid: 9d69ae98725365b4b94189120dc1b40a, type: 3}
    - time: 0.875
      value: {fileID: 0}
    attribute: m_Sprite
    path: 
    classID: 212
    script: {fileID: 0}
  m_SampleRate: 8
  m_WrapMode: 0
  m_Bounds:
    m_Center: {x: 0, y: 0, z: 0}
    m_Extent: {x: 0, y: 0, z: 0}
  m_ClipBindingConstant:
    genericBindings:
    - serializedVersion: 2
      path: 0
      attribute: 2015549526
      script: {fileID: -765806418, guid: f5f67c52d1564df4a8936ccd202a3bd8, type: 3}
      typeID: 114
      customType: 0
      isPPtrCurve: 1
    - serializedVersion: 2
      path: 0
      attribute: 0
      script: {fileID: 0}
      typeID: 212
      customType: 23
      isPPtrCurve: 1
    pptrCurveMapping:
    - {fileID: 21304568, guid: 9d69ae98725365b4b94189120dc1b40a, type: 3}
    - {fileID: 21304584, guid: 9d69ae98725365b4b94189120dc1b40a, type: 3}
    - {fileID: 21304586, guid: 9d69ae98725365b4b94189120dc1b40a, type: 3}
    - {fileID: 21304588, guid: 9d69ae98725365b4b94189120dc1b40a, type: 3}
    - {fileID: 21304590, guid: 9d69ae98725365b4b94189120dc1b40a, type: 3}
    - {fileID: 21304592, guid: 9d69ae98725365b4b94189120dc1b40a, type: 3}
    - {fileID: 21304584, guid: 9d69ae98725365b4b94189120dc1b40a, type: 3}
    - {fileID: 21304568, guid: 9d69ae98725365b4b94189120dc1b40a, type: 3}
    - {fileID: 21304584, guid: 9d69ae98725365b4b94189120dc1b40a, type: 3}
    - {fileID: 21304586, guid: 9d69ae98725365b4b94189120dc1b40a, type: 3}
    - {fileID: 21304588, guid: 9d69ae98725365b4b94189120dc1b40a, type: 3}
    - {fileID: 21304590, guid: 9d69ae98725365b4b94189120dc1b40a, type: 3}
    - {fileID: 21304592, guid: 9d69ae98725365b4b94189120dc1b40a, type: 3}
    - {fileID: 21304584, guid: 9d69ae98725365b4b94189120dc1b40a, type: 3}
    - {fileID: 0}
  m_AnimationClipSettings:
    serializedVersion: 2
    m_AdditiveReferencePoseClip: {fileID: 0}
    m_AdditiveReferencePoseTime: 0
    m_StartTime: 0
    m_StopTime: 1
    m_OrientationOffsetY: 0
    m_Level: 0
    m_CycleOffset: 0
    m_HasAdditiveReferencePose: 0
    m_LoopTime: 0
    m_LoopBlend: 0
    m_LoopBlendOrientation: 0
    m_LoopBlendPositionY: 0
    m_LoopBlendPositionXZ: 0
    m_KeepOriginalOrientation: 0
    m_KeepOriginalPositionY: 1
    m_KeepOriginalPositionXZ: 0
    m_HeightFromFeet: 0
    m_Mirror: 0
  m_EditorCurves: []
  m_EulerEditorCurves: []
  m_HasGenericRootTransform: 0
  m_HasMotionFloatCurves: 0
  m_GenerateMotionCurves: 0
  m_Events: []
--- !u!91 &9100000
AnimatorController:
  m_ObjectHideFlags: 0
  m_CorrespondingSourceObject: {fileID: 0}
  m_PrefabInternal: {fileID: 0}
  m_Name: Slime
  serializedVersion: 5
  m_AnimatorParameters:
  - m_Name: Random
    m_Type: 1
    m_DefaultFloat: 0
    m_DefaultInt: 0
    m_DefaultBool: 0
    m_Controller: {fileID: 9100000}
  - m_Name: Walk
    m_Type: 4
    m_DefaultFloat: 0
    m_DefaultInt: 0
    m_DefaultBool: 0
    m_Controller: {fileID: 9100000}
  - m_Name: Attack
    m_Type: 9
    m_DefaultFloat: 0
    m_DefaultInt: 0
    m_DefaultBool: 0
    m_Controller: {fileID: 9100000}
  m_AnimatorLayers:
  - serializedVersion: 5
    m_Name: Base Layer
    m_StateMachine: {fileID: 110700000}
    m_Mask: {fileID: 0}
    m_Motions: []
    m_Behaviours: []
    m_BlendingMode: 0
    m_SyncedLayerIndex: -1
    m_DefaultWeight: 0
    m_IKPass: 0
    m_SyncedLayerAffectsTiming: 0
    m_Controller: {fileID: 9100000}
--- !u!114 &11453346
MonoBehaviour:
  m_ObjectHideFlags: 3
  m_CorrespondingSourceObject: {fileID: 0}
  m_PrefabInternal: {fileID: 0}
  m_GameObject: {fileID: 0}
  m_Enabled: 1
  m_EditorHideFlags: 0
  m_Script: {fileID: 11500000, guid: fae9c0e9dda852c43a865cd1008d019f, type: 3}
  m_Name: 
  m_EditorClassIdentifier: 
--- !u!114 &11482066
MonoBehaviour:
  m_ObjectHideFlags: 1
  m_CorrespondingSourceObject: {fileID: 0}
  m_PrefabInternal: {fileID: 0}
  m_GameObject: {fileID: 0}
  m_Enabled: 1
  m_EditorHideFlags: 0
  m_Script: {fileID: 11500000, guid: 76f85dddaf31aad48914833b8e346f06, type: 3}
  m_Name: 
  m_EditorClassIdentifier: 
--- !u!206 &20665478
BlendTree:
  m_ObjectHideFlags: 3
  m_CorrespondingSourceObject: {fileID: 0}
  m_PrefabInternal: {fileID: 0}
  m_Name: Random Idle
  m_Childs:
  - serializedVersion: 2
    m_Motion: {fileID: 7400002}
    m_Threshold: 0
    m_Position: {x: 0, y: 0}
    m_TimeScale: 1
    m_CycleOffset: 0
    m_DirectBlendParameter: 
    m_Mirror: 0
  - serializedVersion: 2
    m_Motion: {fileID: 7400004}
    m_Threshold: 0.5
    m_Position: {x: 0, y: 0}
    m_TimeScale: 1
    m_CycleOffset: 0
    m_DirectBlendParameter: 
    m_Mirror: 0
  - serializedVersion: 2
    m_Motion: {fileID: 7400006}
    m_Threshold: 1
    m_Position: {x: 0, y: 0}
    m_TimeScale: 1
    m_CycleOffset: 0
    m_DirectBlendParameter: 
    m_Mirror: 0
  m_BlendParameter: Random
  m_BlendParameterY: Blend
  m_MinThreshold: 0
  m_MaxThreshold: 1
  m_UseAutomaticThresholds: 1
  m_NormalizedBlendValues: 0
  m_BlendType: 0
--- !u!206 &20669424
BlendTree:
  m_ObjectHideFlags: 3
  m_CorrespondingSourceObject: {fileID: 0}
  m_PrefabInternal: {fileID: 0}
  m_Name: Blend Tree
  m_Childs:
  - serializedVersion: 2
    m_Motion: {fileID: 7400002}
    m_Threshold: 0
    m_Position: {x: 0, y: 0}
    m_TimeScale: 1
    m_CycleOffset: 0
    m_DirectBlendParameter: Blend
    m_Mirror: 0
  - serializedVersion: 2
    m_Motion: {fileID: 7400004}
    m_Threshold: 0.5
    m_Position: {x: 0, y: 0}
    m_TimeScale: 1
    m_CycleOffset: 0
    m_DirectBlendParameter: Blend
    m_Mirror: 0
  - serializedVersion: 2
    m_Motion: {fileID: 7400006}
    m_Threshold: 1
    m_Position: {x: 0, y: 0}
    m_TimeScale: 1
    m_CycleOffset: 0
    m_DirectBlendParameter: Blend
    m_Mirror: 0
  m_BlendParameter: Random
  m_BlendParameterY: Facing
  m_MinThreshold: 0
  m_MaxThreshold: 1
  m_UseAutomaticThresholds: 1
  m_NormalizedBlendValues: 0
  m_BlendType: 0
--- !u!1101 &110101856
AnimatorStateTransition:
  m_ObjectHideFlags: 3
  m_CorrespondingSourceObject: {fileID: 0}
  m_PrefabInternal: {fileID: 0}
  m_Name: 
  m_Conditions:
  - m_ConditionMode: 1
    m_ConditionEvent: Walk
    m_EventTreshold: 0
  m_DstStateMachine: {fileID: 0}
  m_DstState: {fileID: 110264500}
  m_Solo: 0
  m_Mute: 0
  m_IsExit: 0
  serializedVersion: 3
  m_TransitionDuration: 0
  m_TransitionOffset: 0
  m_ExitTime: 0
  m_HasExitTime: 0
  m_HasFixedDuration: 1
  m_InterruptionSource: 0
  m_OrderedInterruption: 1
  m_CanTransitionToSelf: 1
--- !u!1101 &110118606
AnimatorStateTransition:
  m_ObjectHideFlags: 3
  m_CorrespondingSourceObject: {fileID: 0}
  m_PrefabInternal: {fileID: 0}
  m_Name: 
  m_Conditions:
  - m_ConditionMode: 1
    m_ConditionEvent: Walk
    m_EventTreshold: 0
  m_DstStateMachine: {fileID: 0}
  m_DstState: {fileID: 110264500}
  m_Solo: 0
  m_Mute: 0
  m_IsExit: 0
  serializedVersion: 3
  m_TransitionDuration: 0
  m_TransitionOffset: 0
  m_ExitTime: 0
  m_HasExitTime: 1
  m_HasFixedDuration: 1
  m_InterruptionSource: 0
  m_OrderedInterruption: 1
  m_CanTransitionToSelf: 1
--- !u!1101 &110132212
AnimatorStateTransition:
  m_ObjectHideFlags: 3
  m_CorrespondingSourceObject: {fileID: 0}
  m_PrefabInternal: {fileID: 0}
  m_Name: 
  m_Conditions:
  - m_ConditionMode: 2
    m_ConditionEvent: Walk
    m_EventTreshold: 0
  m_DstStateMachine: {fileID: 0}
  m_DstState: {fileID: 110221818}
  m_Solo: 0
  m_Mute: 0
  m_IsExit: 0
  serializedVersion: 3
  m_TransitionDuration: 0
  m_TransitionOffset: 0
  m_ExitTime: 0
  m_HasExitTime: 1
  m_HasFixedDuration: 1
  m_InterruptionSource: 0
  m_OrderedInterruption: 1
  m_CanTransitionToSelf: 1
--- !u!1101 &110139492
AnimatorStateTransition:
  m_ObjectHideFlags: 3
  m_CorrespondingSourceObject: {fileID: 0}
  m_PrefabInternal: {fileID: 0}
  m_Name: 
  m_Conditions: []
  m_DstStateMachine: {fileID: 0}
  m_DstState: {fileID: 110221818}
  m_Solo: 0
  m_Mute: 0
  m_IsExit: 0
  serializedVersion: 3
  m_TransitionDuration: 0
  m_TransitionOffset: 0
  m_ExitTime: 0
  m_HasExitTime: 1
  m_HasFixedDuration: 1
  m_InterruptionSource: 0
  m_OrderedInterruption: 1
  m_CanTransitionToSelf: 1
--- !u!1101 &110145498
AnimatorStateTransition:
  m_ObjectHideFlags: 3
  m_CorrespondingSourceObject: {fileID: 0}
  m_PrefabInternal: {fileID: 0}
  m_Name: 
  m_Conditions:
  - m_ConditionMode: 1
    m_ConditionEvent: Attack
    m_EventTreshold: 0
  m_DstStateMachine: {fileID: 0}
  m_DstState: {fileID: 110207406}
  m_Solo: 0
  m_Mute: 0
  m_IsExit: 0
  serializedVersion: 3
  m_TransitionDuration: 0
  m_TransitionOffset: 0
  m_ExitTime: 0
  m_HasExitTime: 0
  m_HasFixedDuration: 1
  m_InterruptionSource: 0
  m_OrderedInterruption: 1
  m_CanTransitionToSelf: 1
--- !u!1101 &110165258
AnimatorStateTransition:
  m_ObjectHideFlags: 3
  m_CorrespondingSourceObject: {fileID: 0}
  m_PrefabInternal: {fileID: 0}
  m_Name: 
  m_Conditions:
  - m_ConditionMode: 2
    m_ConditionEvent: Walk
    m_EventTreshold: 0
  m_DstStateMachine: {fileID: 0}
  m_DstState: {fileID: 110221818}
  m_Solo: 0
  m_Mute: 0
  m_IsExit: 0
  serializedVersion: 3
  m_TransitionDuration: 0
  m_TransitionOffset: 0
  m_ExitTime: 0
  m_HasExitTime: 0
  m_HasFixedDuration: 1
  m_InterruptionSource: 0
  m_OrderedInterruption: 1
  m_CanTransitionToSelf: 1
--- !u!1101 &110177310
AnimatorStateTransition:
  m_ObjectHideFlags: 3
  m_CorrespondingSourceObject: {fileID: 0}
  m_PrefabInternal: {fileID: 0}
  m_Name: 
  m_Conditions:
  - m_ConditionMode: 1
    m_ConditionEvent: Attack
    m_EventTreshold: 0
  m_DstStateMachine: {fileID: 0}
  m_DstState: {fileID: 110207406}
  m_Solo: 0
  m_Mute: 0
  m_IsExit: 0
  serializedVersion: 3
  m_TransitionDuration: 0
  m_TransitionOffset: 0
  m_ExitTime: 0
  m_HasExitTime: 0
  m_HasFixedDuration: 1
  m_InterruptionSource: 0
  m_OrderedInterruption: 1
  m_CanTransitionToSelf: 1
--- !u!1102 &110207406
AnimatorState:
  serializedVersion: 5
  m_ObjectHideFlags: 3
  m_CorrespondingSourceObject: {fileID: 0}
  m_PrefabInternal: {fileID: 0}
  m_Name: Attack
  m_Speed: 1
  m_CycleOffset: 0
  m_Transitions:
  - {fileID: 110132212}
  - {fileID: 110118606}
  m_StateMachineBehaviours: []
  m_Position: {x: 276, y: 120, z: 0}
  m_IKOnFeet: 0
  m_WriteDefaultValues: 1
  m_Mirror: 0
  m_SpeedParameterActive: 0
  m_MirrorParameterActive: 0
  m_CycleOffsetParameterActive: 0
  m_TimeParameterActive: 0
  m_Motion: {fileID: 7400000}
  m_Tag: 
  m_SpeedParameter: Facing
  m_MirrorParameter: 
  m_CycleOffsetParameter: 
  m_TimeParameter: 
--- !u!1102 &110221818
AnimatorState:
  serializedVersion: 5
  m_ObjectHideFlags: 3
  m_CorrespondingSourceObject: {fileID: 0}
  m_PrefabInternal: {fileID: 0}
  m_Name: Idle
  m_Speed: 1
  m_CycleOffset: 0
  m_Transitions:
  - {fileID: 110101856}
  - {fileID: 110177310}
  - {fileID: 110139492}
  m_StateMachineBehaviours:
  - {fileID: 11482066}
  m_Position: {x: 50, y: 50, z: 0}
  m_IKOnFeet: 0
  m_WriteDefaultValues: 1
  m_Mirror: 0
  m_SpeedParameterActive: 0
  m_MirrorParameterActive: 0
  m_CycleOffsetParameterActive: 0
  m_TimeParameterActive: 0
  m_Motion: {fileID: 20669424}
  m_Tag: 
  m_SpeedParameter: Facing
  m_MirrorParameter: 
  m_CycleOffsetParameter: 
  m_TimeParameter: 
--- !u!1102 &110229980
AnimatorState:
  serializedVersion: 5
  m_ObjectHideFlags: 3
  m_CorrespondingSourceObject: {fileID: 0}
  m_PrefabInternal: {fileID: 0}
  m_Name: Idle2
  m_Speed: 1
  m_CycleOffset: 0
  m_Transitions: []
  m_StateMachineBehaviours: []
  m_Position: {x: 305, y: 195, z: 0}
  m_IKOnFeet: 0
  m_WriteDefaultValues: 1
  m_Mirror: 0
  m_SpeedParameterActive: 0
  m_MirrorParameterActive: 0
  m_CycleOffsetParameterActive: 0
  m_TimeParameterActive: 0
  m_Motion: {fileID: 7400000, guid: 220abf5766cda9549b70640153f5cfbc, type: 2}
  m_Tag: 
  m_SpeedParameter: 
  m_MirrorParameter: 
  m_CycleOffsetParameter: 
  m_TimeParameter: 
--- !u!1102 &110242764
AnimatorState:
  serializedVersion: 5
  m_ObjectHideFlags: 3
  m_CorrespondingSourceObject: {fileID: 0}
  m_PrefabInternal: {fileID: 0}
  m_Name: Idle1
  m_Speed: 1
  m_CycleOffset: 0
  m_Transitions: []
  m_StateMachineBehaviours: []
  m_Position: {x: 270, y: 130, z: 0}
  m_IKOnFeet: 0
  m_WriteDefaultValues: 1
  m_Mirror: 0
  m_SpeedParameterActive: 0
  m_MirrorParameterActive: 0
  m_CycleOffsetParameterActive: 0
  m_TimeParameterActive: 0
  m_Motion: {fileID: 7400000, guid: 69f7652ae98eec44abd07ab0eee5444a, type: 2}
  m_Tag: 
  m_SpeedParameter: 
  m_MirrorParameter: 
  m_CycleOffsetParameter: 
  m_TimeParameter: 
--- !u!1102 &110249034
AnimatorState:
  serializedVersion: 5
  m_ObjectHideFlags: 3
  m_CorrespondingSourceObject: {fileID: 0}
  m_PrefabInternal: {fileID: 0}
  m_Name: Idle
  m_Speed: 1
  m_CycleOffset: 0
  m_Transitions: []
  m_StateMachineBehaviours: []
  m_Position: {x: 235, y: 65, z: 0}
  m_IKOnFeet: 0
  m_WriteDefaultValues: 1
  m_Mirror: 0
  m_SpeedParameterActive: 0
  m_MirrorParameterActive: 0
  m_CycleOffsetParameterActive: 0
  m_TimeParameterActive: 0
  m_Motion: {fileID: 7400000, guid: 97262bfc8eb819c449e14fdfd1beabd0, type: 2}
  m_Tag: 
  m_SpeedParameter: 
  m_MirrorParameter: 
  m_CycleOffsetParameter: 
  m_TimeParameter: 
--- !u!1102 &110259583
AnimatorState:
  serializedVersion: 5
  m_ObjectHideFlags: 3
  m_CorrespondingSourceObject: {fileID: 0}
  m_PrefabInternal: {fileID: 0}
  m_Name: Walk
  m_Speed: 1
  m_CycleOffset: 0
  m_Transitions: []
  m_StateMachineBehaviours: []
  m_Position: {x: 340, y: 260, z: 0}
  m_IKOnFeet: 0
  m_WriteDefaultValues: 1
  m_Mirror: 0
  m_SpeedParameterActive: 0
  m_MirrorParameterActive: 0
  m_CycleOffsetParameterActive: 0
  m_TimeParameterActive: 0
  m_Motion: {fileID: 7400000, guid: aec8daee734558544931d2c4c015260c, type: 2}
  m_Tag: 
  m_SpeedParameter: 
  m_MirrorParameter: 
  m_CycleOffsetParameter: 
  m_TimeParameter: 
--- !u!1102 &110264500
AnimatorState:
  serializedVersion: 5
  m_ObjectHideFlags: 3
  m_CorrespondingSourceObject: {fileID: 0}
  m_PrefabInternal: {fileID: 0}
  m_Name: Walk
  m_Speed: 4
  m_CycleOffset: 0
  m_Transitions:
  - {fileID: 110165258}
  - {fileID: 110145498}
  m_StateMachineBehaviours: []
  m_Position: {x: 50, y: 50, z: 0}
  m_IKOnFeet: 0
  m_WriteDefaultValues: 1
  m_Mirror: 0
  m_SpeedParameterActive: 0
  m_MirrorParameterActive: 0
  m_CycleOffsetParameterActive: 0
  m_TimeParameterActive: 0
  m_Motion: {fileID: 7400006}
  m_Tag: 
  m_SpeedParameter: Facing
  m_MirrorParameter: 
  m_CycleOffsetParameter: 
  m_TimeParameter: 
--- !u!1107 &110700000
AnimatorStateMachine:
  serializedVersion: 5
  m_ObjectHideFlags: 3
  m_CorrespondingSourceObject: {fileID: 0}
  m_PrefabInternal: {fileID: 0}
  m_Name: Base Layer
  m_ChildStates:
  - serializedVersion: 1
    m_State: {fileID: 110221818}
    m_Position: {x: 360, y: 0, z: 0}
  - serializedVersion: 1
    m_State: {fileID: 110207406}
    m_Position: {x: 480, y: 72, z: 0}
  - serializedVersion: 1
    m_State: {fileID: 110264500}
    m_Position: {x: 240, y: 72, z: 0}
  m_ChildStateMachines: []
  m_AnyStateTransitions: []
  m_EntryTransitions: []
  m_StateMachineTransitions: {}
  m_StateMachineBehaviours: []
  m_AnyStatePosition: {x: 0, y: 36, z: 0}
  m_EntryPosition: {x: 0, y: 0, z: 0}
  m_ExitPosition: {x: 0, y: 72, z: 0}
  m_ParentStateMachinePosition: {x: 800, y: 20, z: 0}
  m_DefaultState: {fileID: 110221818}
